test_FIR.vcd
$date
    Tue Dec 14 11:26:51 2021
$end
$version
    MyHDL 0.11
$end
$timescale
    1ns
$end

$scope module test_FIR $end
$var real 1 ! counter $end
$var real 1 " out $end
$var real 1 # sel $end
$var real 1 $ z $end
$scope module IIR0 $end
$var real 1 ! counter $end
$var real 1 " out $end
$var real 1 # sel $end
$upscope $end
$upscope $end

$enddefinitions $end
$dumpvars
s1 !
s0x0 "
s0x0 #
s0 $
$end
s2 !
s0x1 #
s-61 $
#10
s3 !
s0 $
#20
s4 !
s0x0 #
s121 $
s0x79 "
#30
s5 !
s0x1 #
s130 $
s0x0 "
#40
s6 !
s0x0 #
s-12 $
s-0xc "
#50
s7 !
s-158 $
s-0x9e "
#60
s8 !
s-169 $
s-0xa9 "
#70
s9 !
s-98 $
s-0x62 "
#80
s10 !
s0x1 #
s-102 $
s0x0 "
#90
s11 !
s-208 $
#100
s12 !
s0x0 #
s-268 $
s-0x10c "
#110
s13 !
s0x1 #
s-170 $
s0x3 "
#120
s14 !
s0x0 #
s-1 $
s-0x1 "
#130
s15 !
s61 $
s0x3d "
#140
s16 !
s-12 $
s-0xc "
#150
s17 !
s-79 $
s-0x4f "
#160
s18 !
s0x1 #
s-28 $
s0x11 "
#170
s19 !
s58 $
s0x10 "
#180
s20 !
s0x0 #
s27 $
s0x1b "
#190
s21 !
s0x1 #
s-117 $
s0x5 "
#200
s22 !
s0x0 #
s-208 $
s-0xd0 "
#210
s23 !
s-137 $
s-0x89 "
#220
s24 !
s3 $
s0x3 "
#230
s25 !
s0x1 #
s50 $
s-0x37 "
#240
s26 !
s0x0 #
s-2 $
s-0x2 "
#250
s27 !
s-6 $
s-0x6 "
#260
s28 !
s117 $
s0x75 "
#270
s29 !
s255 $
s0xff "
#280
s30 !
s247 $
s0xf7 "
#290
s31 !
s108 $
s0x6c "
#300
s32 !
s10 $
s0xa "
#310
s33 !
s46 $
s0x2e "
#320
s34 !
s0x1 #
s114 $
s-0x5e "
#330
s35 !
s72 $
s-0x54 "
#340
s36 !
s0x0 #
s-45 $
s-0x2d "
#350
s37 !
s-75 $
s-0x4b "
#360
s38 !
s48 $
s0x30 "
#370
s39 !
s193 $
s0xc1 "
#380
s40 !
s0x1 #
s202 $
s-0x28 "
#390
s41 !
s102 $
s-0x1c "
#400
s42 !
s0x0 #
s53 $
s0x35 "
#410
s43 !
s0x1 #
s115 $
s0x1 "
#420
s44 !
s161 $
s0x13 "
#430
s45 !
s0x0 #
s64 $
s0x40 "
#440
s46 !
s-114 $
s-0x72 "
#450
s47 !
s0x1 #
s-198 $
s0x47 "
#460
s48 !
s0x0 #
s-126 $
s-0x7e "
#470
s49 !
s0x1 #
s-34 $
s0x5e "
#480
s50 !
s-55 $
s0x63 "
#490
s51 !
s0x0 #
s-137 $
s-0x89 "
#500
s52 !
s0x1 #
s-126 $
s0x66 "
#510
s53 !
s0x0 #
s5 $
s0x5 "
#520
s54 !
s0x1 #
s105 $
s0x63 "
#530
s55 !
s45 $
s0x61 "
#540
s56 !
s-103 $
s0x5f "
#550
s57 !
s-168 $
s0x5d "
#560
s58 !
s-111 $
s0x59 "
#570
s59 !
s0x0 #
s-68 $
s-0x44 "
#580
s60 !
s0x1 #
s-146 $
s0x4b "
#590
s61 !
s-256 $
s0x3f "
#600
s62 !
s0x0 #
s-236 $
s-0xec "
#610
s63 !
s-76 $
s-0x4c "
#620
s64 !
s0x1 #
s60 $
s0xb "
#630
s65 !
s0x0 #
s52 $
s0x34 "
#640
s66 !
s0x1 #
s-17 $
s-0x19 "
#650
s67 !
s0 $
s-0x29 "
#660
s68 !
s0x0 #
s109 $
s0x6d "
#670
s69 !
s0x1 #
s156 $
s-0x40 "
#680
s70 !
s50 $
s-0x48 "
#690
s71 !
s-95 $
s-0x4e "
#700
s72 !
s0x0 #
s-113 $
s-0x71 "
#710
s73 !
s0x1 #
s0 $
s-0x59 "
#720
s74 !
s0x0 #
s82 $
s0x52 "
#730
s75 !
s45 $
s0x2d "
#740
s76 !
s-8 $
s-0x8 "
#750
s77 !
s59 $
s0x3b "
#760
s78 !
s219 $
s0xdb "
#770
s79 !
s0x1 #
s297 $
s-0x6b "
#780
s80 !
s209 $
s-0x64 "
#790
s81 !
s75 $
s-0x59 "
#800
s82 !
s49 $
s-0x4b "
#810
s83 !
s111 $
s-0x3b "
#820
s84 !
s0x0 #
s108 $
s0x6c "
#830
s85 !
s0x1 #
s-16 $
s-0x19 "
#840
s86 !
s-130 $
s-0xa "
#850
s87 !
s0x0 #
s-90 $
s-0x5a "
#860
s88 !
s0x1 #
s55 $
s0xf "
#870
s89 !
s0x0 #
s131 $
s0x83 "
#880
s90 !
s68 $
s0x44 "
#890
s91 !
s0x1 #
s-9 $
s0x2e "
#900
s92 !
s23 $
s0x3a "
#910
s93 !
s0x0 #
s113 $
s0x71 "
#920
s94 !
s0x1 #
s96 $
s0x52 "
#930
s95 !
s-62 $
s0x5e "
#940
s96 !
s0x0 #
s-212 $
s-0xd4 "
#950
s97 !
s0x1 #
s-213 $
s0x70 "
#960
s98 !
s-118 $
s0x74 "
#970
s99 !
s-92 $
s0x73 "
#980
s100 !
s0x0 #
s-169 $
s-0xa9 "
#990
s101 !
s-211 $
s-0xd3 "
#1000
s102 !
s-109 $
s-0x6d "
#1010
s103 !
s0x1 #
s49 $
s0x50 "
#1020
s104 !
s90 $
s0x44 "
#1030
s105 !
s0x0 #
s-14 $
s-0xe "
#1040
s106 !
s-113 $
s-0x71 "
#1050
s107 !
s-86 $
s-0x56 "
#1060
s108 !
s0x1 #
s-11 $
s0x19 "
#1070
s109 !
s0x0 #
s-36 $
s-0x24 "
#1080
s110 !
s-162 $
s-0xa2 "
#1090
s111 !
s0x1 #
s-227 $
s-0xb "
#1100
s112 !
s-126 $
s-0x1b "
#1110
s113 !
s40 $
s-0x2c "
#1120
s114 !
s102 $
s-0x3d "
#1130
s115 !
s0x0 #
s49 $
s0x31 "
#1140
s116 !
s28 $
s0x1c "
#1150
s117 !
s126 $
s0x7e "
#1160
s118 !
s0x1 #
s234 $
s-0x6b "
#1170
s119 !
s201 $
s-0x6d "
#1180
s120 !
s0x0 #
s46 $
s0x2e "
#1190
s121 !
s-54 $
s-0x36 "
#1200
s122 !
s-5 $
s-0x5 "
#1210
s123 !
s0x1 #
s87 $
s-0x5e "
#1220
s124 !
s0x0 #
s78 $
s0x4e "
#1230
s125 !
s-9 $
s-0x9 "
#1240
s126 !
s0x1 #
s-18 $
s-0x4e "
#1250
s127 !
s112 $
s-0x48 "
#1260
s128 !
s0x0 #
s251 $
s0xfb "
#1270
s129 !
s241 $
s0xf1 "
#1280
s130 !
s0x1 #
s113 $
s-0x27 "
#1290
s131 !
s34 $
s-0x16 "
#1300
s132 !
s0x0 #
s72 $
s0x48 "
#1310
s133 !
s0x1 #
s108 $
s0xe "
#1320
s134 !
s0x0 #
s17 $
s0x11 "
#1330
s135 !
s0x1 #
s-144 $
s0x32 "
#1340
s136 !
s-201 $
s0x41 "
#1350
s137 !
s-100 $
s0x4c "
#1360
s138 !
s18 $
s0x54 "
#1370
s139 !
s13 $
s0x59 "
#1380
s140 !
s-69 $
s0x5c "
#1390
s141 !
s-75 $
s0x5f "
#1400
s142 !
s29 $
s0x61 "
#1410
s143 !
s0x0 #
s98 $
s0x62 "
#1420
s144 !
s10 $
s0xa "
#1430
s145 !
s0x1 #
s-158 $
s0x67 "
#1440
s146 !
s0x0 #
s-230 $
s-0xe6 "
#1450
s147 !
s0x1 #
s-163 $
s0x63 "
#1460
s148 !
s-98 $
s0x5d "
#1470
s149 !
s0x0 #
s-145 $
s-0x91 "
#1480
s150 !
s-228 $
s-0xe4 "
#1490
s151 !
s0x1 #
s-189 $
s0x35 "
#1500
s152 !
s-21 $
s0x23 "
#1510
s153 !
s107 $
s0x10 "
#1520
s154 !
s0x0 #
s80 $
s0x50 "
#1530
s155 !
s0x1 #
s-20 $
s-0x10 "
#1540
s156 !
s0x0 #
s-33 $
s-0x21 "
#1550
s157 !
s0x1 #
s51 $
s-0x29 "
#1560
s158 !
s85 $
s-0x32 "
#1570
s159 !
s-16 $
s-0x3b "
#1580
s160 !
s-145 $
s-0x43 "
#1590
s161 !
s-135 $
s-0x4c "
#1600
s162 !
s7 $
s-0x56 "
#1610
s163 !
s119 $
s-0x5f "
#1620
s164 !
s0x0 #
s100 $
s0x64 "
#1630
s165 !
s47 $
s0x2f "
#1640
s166 !
s0x1 #
s102 $
s-0x72 "
#1650
s167 !
s238 $
#1660
s168 !
s287 $
s-0x6e "
#1670
s169 !
s173 $
s-0x66 "
#1680
s170 !
s20 $
s-0x5a "
#1690
s171 !
s-10 $
s-0x4c "
#1700
s172 !
s63 $
s-0x3e "
#1710
s173 !
s84 $
s-0x2f "
#1720
s174 !
s-8 $
s-0x22 "
#1730
s175 !
s-92 $
s-0x15 "
#1740
s176 !
s-31 $
s-0xa "
#1750
s177 !
s124 $
s0x0 "
#1760
s178 !
s0x0 #
s196 $
s0xc4 "
#1770
s179 !
s0x1 #
s115 $
s0x17 "
#1780
s180 !
s7 $
s0x24 "
#1790
s181 !
s9 $
s0x33 "
#1800
s182 !
s0x0 #
s74 $
s0x4a "
#1810
s183 !
s44 $
s0x2c "
#1820
s184 !
s-113 $
s-0x71 "
#1830
s185 !
s0x1 #
s-248 $
s0x69 "
#1840
s186 !
s-223 $
s0x6f "
#1850
s187 !
s-99 $
s0x72 "
#1860
s188 !
s0x0 #
s-46 $
s-0x2e "
#1870
s189 !
s0x1 #
s-107 $
s0x6c "
#1880
s190 !
s0x0 #
s-149 $
s-0x95 "
#1890
s191 !
s0x1 #
s-62 $
s0x5c "
#1900
s192 !
s71 $
s0x53 "
#1910
s193 !
s81 $
s0x4b "
#1920
s194 !
s0x0 #
s-52 $
s-0x34 "
#1930
s195 !
s-173 $
s-0xad "
#1940
s196 !
s-155 $
s-0x9b "
#1950
s197 !
s0x1 #
s-71 $
s0x28 "
#1960
s198 !
s0x0 #
s-74 $
s-0x4a "
#1970
s199 !
s-171 $
s-0xab "
#1980
s200 !
s-207 $
s-0xcf "
#1990
s201 !
s-84 $
s-0x54 "
#2000
s202 !
s0x1 #
s92 $
s-0x28 "
#2010
s203 !
s0x0 #
s150 $
s0x96 "
#2020
s204 !
s79 $
s0x4f "
#2030
s205 !
s30 $
s0x1e "
#2040
s206 !
s97 $
s0x61 "
#2050
s207 !
s181 $
s0xb5 "
#2060
s208 !
s0x1 #
s135 $
s-0x65 "
#2070
s209 !
s0x0 #
s-17 $
s-0x11 "
#2080
s210 !
s0x1 #
s-102 $
s-0x64 "
#2090
s211 !
s0x0 #
s-27 $
s-0x1b "
#2100
s212 !
s97 $
s0x61 "
#2110
s213 !
s0x1 #
s118 $
s-0x60 "
#2120
s214 !
s49 $
s-0x5e "
#2130
s215 !
s44 $
s-0x5a "
#2140
s216 !
s164 $
s-0x54 "
#2150
s217 !
s0x0 #
s281 $
s0x119 "
#2160
s218 !
s243 $
s0xf3 "
#2170
s219 !
s87 $
s0x57 "
#2180
s220 !
s0x1 #
s-13 $
s-0x1c "
#2190
s221 !
s0x0 #
s17 $
s0x11 "
#2200
s222 !
s0x1 #
s62 $
s0xa "
#2210
s223 !
s-6 $
s0x1b "
#2220
s224 !
s-138 $
s0x2a "
#2230
s225 !
s-166 $
s0x36 "
#2240
s226 !
s0x0 #
s-41 $
s-0x29 "
#2250
s227 !
s0x1 #
s88 $
s0x48 "
#2260
s228 !
s0x0 #
s79 $
s0x4f "
#2270
s229 !
s0x1 #
s-21 $
s0x54 "
#2280
s230 !
s0x0 #
s-56 $
s-0x38 "
#2290
s231 !
s0x1 #
s16 $
s0x60 "
#2300
s232 !
s58 $
s0x66 "
#2310
s233 !
s-44 $
s0x6b "
#2320
s234 !
s-215 $
s0x6e "
#2330
s235 !
s0x0 #
s-275 $
s-0x113 "
#2340
s236 !
s0x1 #
s-184 $
s0x6a "
#2350
s237 !
s-89 $
s0x62 "
#2360
s238 !
s-109 $
s0x57 "
#2370
s239 !
s-174 $
s0x48 "
#2380
s240 !
s0x0 #
s-133 $
s-0x85 "
#2390
s241 !
s22 $
s0x16 "
#2400
s242 !
s0x1 #
s128 $
s0x17 "
#2410
s243 !
s71 $
s0x8 "
#2420
s244 !
s0x0 #
s-59 $
s-0x3b "
#2430
s245 !
s-96 $
s-0x60 "
#2440
s246 !
s-20 $
s-0x14 "
#2450
s247 !
s0x1 #
s21 $
s-0x24 "
#2460
s248 !
s0x0 #
s-59 $
s-0x3b "
#2470
s249 !
s0x1 #
s-159 $
#2480
s250 !
s0x0 #
s-120 $
s-0x78 "
#2490
s251 !
s0x1 #
s47 $
s-0x54 "
#2500
s252 !
s0x0 #
s173 $
s0xad "
#2510
s253 !
s0x1 #
s153 $
s-0x6a "
#2520
s254 !
s84 $
s-0x71 "
#2530
s255 !
s111 $
s-0x74 "
#2540
s256 !
s217 $
s-0x73 "
#2550
s257 !
s0x0 #
s242 $
s0xf2 "
#2560
s258 !
s0x1 #
s114 $
s-0x65 "
#2570
s259 !
s-38 $
s-0x5a "
#2580
s260 !
s-56 $
s-0x4e "
#2590
s261 !
s43 $
s-0x43 "
#2600
s262 !
s97 $
s-0x38 "
#2610
s263 !
s0x0 #
s34 $
s0x22 "
#2620
s264 !
s0x1 #
s-29 $
s-0x23 "
#2630
s265 !
s37 $
s-0x19 "
#2640
s266 !
s184 $
s-0xe "
#2650
s267 !
s234 $
s-0x1 "
#2660
s268 !
s124 $
s0xd "
#2670
s269 !
s0x0 #
s-12 $
s-0xc "
#2680
s270 !
s0x1 #
s-34 $
s0x2f "
#2690
s271 !
s20 $
s0x40 "
#2700
s272 !
s-2 $
s0x50 "
#2710
s273 !
s-140 $
s0x5c "
#2720
s274 !
s0x0 #
s-248 $
s-0xf8 "
#2730
s275 !
s0x1 #
s-195 $
s0x6b "
#2740
s276 !
s0x0 #
s-47 $
s-0x2f "
#2750
s277 !
s19 $
s0x13 "
#2760
s278 !
s0x1 #
s-43 $
s0x67 "
#2770
s279 !
s0x0 #
s-103 $
s-0x67 "
#2780
s280 !
s0x1 #
s-45 $
s0x5d "
#2790
s281 !
s0x0 #
s55 $
s0x37 "
#2800
s282 !
s38 $
s0x26 "
#2810
s283 !
s0x1 #
s-113 $
s0x4e "
#2820
s284 !
s0x0 #
s-237 $
s-0xed "
#2830
s285 !
s0x1 #
s-209 $
s0x3f "
#2840
s286 !
s-102 $
s0x33 "
#2850
s287 !
s0x0 #
s-74 $
s-0x4a "
#2860
s288 !
s0x1 #
s-143 $
s0x14 "
#2870
s289 !
s0x0 #
s-160 $
s-0xa0 "
#2880
s290 !
s-32 $
s-0x20 "
#2890
s291 !
s0x1 #
s135 $
s-0x24 "
#2900
s292 !
s173 $
s-0x34 "
#2910
s293 !
s0x0 #
s73 $
s0x49 "
#2920
s294 !
s0x1 #
s-6 $
s-0x4c "
#2930
s295 !
s36 $
s-0x54 "
#2940
s296 !
s111 $
s-0x59 "
#2950
s297 !
s71 $
s-0x5c "
#2960
s298 !
s0x0 #
s-61 $
s-0x3d "
#2970
s299 !
s-118 $
s-0x76 "
#2980
s300 !
s-12 $
s-0xc "
#2990
s301 !
s0x1 #
s140 $
s-0x66 "
#3000
s302 !
s177 $
s-0x68 "
#3010
s303 !
s109 $
s-0x67 "
#3020
s304 !
s89 $
s-0x63 "
#3030
s305 !
s0x0 #
s184 $
s0xb8 "
#3040
s306 !
s0x1 #
s271 $
s-0x51 "
#3050
s307 !
s208 $
s-0x43 "
#3060
s308 !
s35 $
s-0x32 "
#3070
s309 !
s0x0 #
s-68 $
s-0x44 "
#3080
s310 !
s-25 $
s-0x19 "
#3090
s311 !
s44 $
s0x2c "
#3100
s312 !
s0x1 #
s7 $
s0x11 "
#3110
s313 !
s-95 $
s0x1e "
#3120
s314 !
s0x0 #
s-103 $
s-0x67 "
#3130
s315 !
s28 $
s0x1c "
#3140
s316 !
s151 $
s0x97 "
#3150
s317 !
s0x1 #
s122 $
s0x44 "
#3160
s318 !
s-9 $
s0x4d "
#3170
s319 !
s-75 $
s0x57 "
#3180
s320 !
s-27 $
s0x61 "
#3190
s321 !
s3 $
s0x6a "
#3200
s322 !
s-97 $
s0x70 "
#3210
s323 !
s0x0 #
s-251 $
s-0xfb "
#3220
s324 !
s0x1 #
s-285 $
s0x72 "
#3230
s325 !
s-166 $
s0x6d "
#3240
s326 !
s0x0 #
s-45 $
s-0x2d "
#3250
s327 !
s0x1 #
s-50 $
s0x58 "
#3260
s328 !
s0x0 #
s-116 $
s-0x74 "
#3270
s329 !
s0x1 #
s-91 $
s0x3b "
#3280
s330 !
s36 $
s0x2d "
#3290
s331 !
s112 $
s0x20 "
#3300
s332 !
s26 $
s0x15 "
#3310
s333 !
s0x0 #
s-123 $
s-0x7b "
#3320
s334 !
s-166 $
s-0xa6 "
#3330
s335 !
s0x1 #
s-81 $
s-0xc "
#3340
s336 !
s-15 $
s-0x18 "
#3350
s337 !
s-65 $
s-0x26 "
#3360
s338 !
s0x0 #
s-136 $
s-0x88 "
#3370
s339 !
s0x1 #
s-76 $
s-0x45 "
#3380
s340 !
s0x0 #
s100 $
s0x64 "
#3390
s341 !
s221 $
s0xdd "
#3400
s342 !
s182 $
s0xb6 "
#3410
s343 !
s0x1 #
s85 $
s-0x70 "
#3420
s344 !
s0x0 #
s82 $
s0x52 "
#3430
s345 !
s164 $
s0xa4 "
#3440
s346 !
s179 $
s0xb3 "
#3450
s347 !
s0x1 #
s55 $
s-0x63 "
#3460
s348 !
s-80 $
s-0x5a "
#3470
s349 !
s0x0 #
s-70 $
s-0x46 "
#3480
s350 !
s0x1 #
s61 $
s-0x4a "
#3490
s351 !
s144 $
s-0x42 "
#3500
s352 !
s0x0 #
s99 $
s0x63 "
#3510
s353 !
s37 $
s0x25 "
#3520
s354 !
s90 $
s0x5a "
#3530
s355 !
s213 $
s0xd5 "
#3540
s356 !
s235 $
s0xeb "
#3550
s357 !
s97 $
s0x61 "
#3560
s358 !
s0x1 #
s-59 $
s0x19 "
#3570
s359 !
s-87 $
s0x2b "
#3580
s360 !
s0x0 #
s-23 $
s-0x17 "
#3590
s361 !
#3600
s362 !
s-131 $
s-0x83 "
#3610
s363 !
s0x1 #
s-211 $
s0x5e "
#3620
s364 !
s0x0 #
s-136 $
s-0x88 "
#3630
s365 !
s20 $
s0x14 "
#3640
s366 !
s81 $
s0x51 "
#3650
s367 !
s-1 $
s-0x1 "
#3660
s368 !
s-91 $
s-0x5b "
#3670
s369 !
s0x1 #
s-66 $
s0x61 "
#3680
s370 !
s0x0 #
s8 $
s0x8 "
#3690
s371 !
s0x1 #
s-21 $
s0x5e "
#3700
s372 !
s0x0 #
s-173 $
s-0xad "
#3710
s373 !
s-284 $
s-0x11c "
#3720
s374 !
s0x1 #
s-231 $
s0x49 "
#3730
s375 !
s0x0 #
s-94 $
s-0x5e "
#3740
s376 !
s-39 $
s-0x27 "
#3750
s377 !
s0x1 #
s-91 $
s0x19 "
#3760
s378 !
s0x0 #
s-107 $
s-0x6b "
#3770
s379 !
s0x1 #
s6 $
s-0xc "
#3780
s380 !
s150 $
s-0x1d "
#3790
s381 !
s159 $
s-0x2b "
#3800
s382 !
s30 $
s-0x37 "
#3810
s383 !
s-70 $
s-0x40 "
#3820
s384 !
s0x0 #
s-34 $
s-0x22 "
#3830
s385 !
s49 $
s0x31 "
#3840
s386 !
s0x1 #
s32 $
s-0x54 "
#3850
s387 !
s0x0 #
s-69 $
s-0x45 "
#3860
s388 !
s0x1 #
s-96 $
s-0x61 "
#3870
s389 !
s0x0 #
s32 $
s0x20 "
#3880
s390 !
s0x1 #
s197 $
s-0x6c "
#3890
s391 !
s0x0 #
s233 $
s0xe9 "
#3900
s392 !
s148 $
s0x94 "
#3910
s393 !
s0x1 #
s100 $
s-0x6a "
#3920
s394 !
s164 $
s-0x61 "
#3930
s395 !
s0x0 #
s228 $
s0xe4 "
#3940
s396 !
s152 $
s0x98 "
#3950
s397 !
s0x1 #
s-18 $
s-0x35 "
#3960
s398 !
s-107 $
s-0x25 "
#3970
s399 !
s-38 $
s-0x15 "
